[
{
	"num": 1,
	"mar": "1",
	"checkPoint": ["РТИ-1", "ул. Пограничная", "ул. Харьковская", "пл. Покровская", "ул. Ильинская", "ул. Степана Бандеры", "Белопольское шоссе"],
	"checkPointUA": ["ГТВ-1", "вул. Прикордонна", "вул. Харківська", "пл. Покровська", "вул. Іллінська", "вул. Степана Бандери", "Білопільський шлях"],
	"checkPointGB": ["PRP-1", "Prikordonna St", "Kharkivs'ka St", "Pokrovska Sqr", "Illins'ka St", "Stepana Bandery St", "Bilopilskyi shliakh"],
	"pnts": ["50.856655, 34.895802", "50.929565, 34.750017"]
},
{
	"num": 2,
	"mar": "2",
	"checkPoint": ["Автовокзал", "ул. Степана Бандеры", "ул. Ильинская", "пл. Покровская", "ул. Харьковская", "ул. Пограничная", "РТИ-2"],
	"checkPointUA": ["Автовокзал", "вул. Степана Бандери", "вул. Іллінська", "пл. Покровська", "вул. Харківська", "вул. Прикордонна", "ГТВ-2"],
	"checkPointGB": ["Bus station", "Stepana Bandery St", "Illins'ka St", "Pokrovska Sqr", "Kharkivs'ka St", "Prikordonna St", "PRP-2"],
	"pnts": ["50.850703, 34.905339", "50.915187, 34.771499", "50.918413, 34.768527", "50.914483, 34.771900"]
},
{
	"num": 3,
	"mar": "3",
	"checkPoint": ["Аэропорт", "ул. Кондратьева", "ул. Петропавловская", "пл. Покровская", "ул. Троицкая", "пл. Привокзальная", "пр. Шевченко", "ул. Героев Сумщины", "ЖД вокзал"],
	"checkPointUA": ["Аеропорт", "вул. Кондратьєва", "вул. Петропавлівская", "пл. Покровська", "вул. Троїцька", "пл. Привокзальна", "пр. Шевченко", "вул. Героїв Сумщини", "Залізничний вкз."],
	"checkPointGB": ["Airport", "Kondratieva St", "Petropavlivs'ka St", "Pokrovska Sqr", "Troitska St", "Pryvokzal'na St", "Tarasa Shevchenko Ave", "Heroiv Sumshchyny St", "Railway st."],
	"pnts": ["50.872539, 34.771394", "50.893822, 34.783141", "50.907577, 34.798071", "50.911203, 34.810879", "50.924544, 34.816198", "50.925322, 34.807593", "50.911538, 34.806042"]
},
{
	"num": 4,
	"mar": "4",
	"checkPoint": ["Аэропорт", "ул. Кондратьева", "ул. Петропавловская", "пл. Покровская", "ул. Троицкая", "пл. Привокзальная", "пр. Шевченко", "ул. Героев Сумщины", "ЖД вокзал"],
	"checkPointUA": ["Аеропорт", "вул. Кондратьєва", "вул. Петропавлівская", "пл. Покровська", "вул. Троїцька", "пл. Привокзальна", "пр. Шевченко", "вул. Героїв Сумщини", "Залізничний вкз."],
	"checkPointGB": ["Airport", "Kondratieva St", "Petropavlivs'ka St", "Pokrovska Sqr", "Troitska St", "Pryvokzal'na St", "Tarasa Shevchenko Ave", "Heroiv Sumshchyny St", "Railway st."],
	"pnts": ["50.872539, 34.771394", "50.893822, 34.783141", "50.907577, 34.798071", "50.911203, 34.810879", "50.924544, 34.816198", "50.925322, 34.807593", "50.911538, 34.806042"]
},
{
	"num": 5,
	"mar": "5",
	"checkPoint": ["Педуниверситет", "ул. Роменская", "ул. Черновола", "ул. Ильинская", "Покровская пл.", "ул. Харьковская", "пр. М.Лушпы", "ул. Черепина", "12-й микрорайон"],
	"checkPointUA": ["Педуніверситет", "вул. Роменська", "вул. Чорновола", "ул. Іллінська", "Покровська пл.", "вул. Харківська", "пр. М.Лушпи", "вул. Черепіна", "12-й мікрорайон"],
	"checkPointGB": ["PedUniversity", "Romens'ka St", "Viacheslava Chornovola St", "Illins'ka St", "Pokrovska Sqr", "Kharkivs'ka St", "Mykhaila Lushpy Ave", "Cherepina St", "12-th district"],
	"pnts": ["50.888148, 34.749460", "50.913424, 34.777961", "50.901965, 34.815156", "50.916386, 34.834301", "50.904960, 34.845953"]	
},
{
	"num": 6,
	"mar": "6",
	"checkPoint": ["Педуниверситет", "ул. Роменская", "ул. Черновола", "ул. Ильинская", "ул. Кооперативная", "ул. Горького", "ул. Металлургов", "пр. Курский", "ул. Брянская", "Курский пр.", "ул.Металлургов", "ул.Горького", "ул. Набережная р.Сумки", "Покровская пл.", "ул.Ильинская", "Обл.кардиоцентр"],
	"checkPointUA": ["Педуніверситет", "вул. Роменська", "вул. Чорновола", "вул. Іллінська", "вул. Кооперативна", "вул. Горького", "вул. Металургів", "пр. Курський", "вул. Брянська", "Курський пр.", "вул.Металургів", "вул.Горького", "вул. Набережна р.Сумки", "Покровська пл.", "вул.Іллінська", "Обл.кардіоцентр"],
	"checkPointGB": ["PedUniversity", "Romens'ka St", "Viacheslava Chornovola St", "Illins'ka St", "Kooperativna St", "Hor'koho St", "Metalurhiv St", "Kurs'kyi Ave", "Bryans'ka St", "Kurs'kyi Ave.", "Metalurhiv St.", "Hor'koho St.", "Naberezhna r. Sumki St", "Pokrovska Sqr", "Illins'ka St.", "reg.Cardiology"],
	"pnts": ["50.888174, 34.749469","50.913428, 34.777971", "50.891891, 34.830408", "50.889804, 34.820849", "50.884378, 34.823979", "50.888244, 34.833293", "50.896172, 34.832834"]	
},
{
	"num": 7,
	"mar": "7",
	"checkPoint": ["Школа №26", "ул. Харьковская", "Покровская пл.", "ул. Кооперативная", "ул. Горького", "ул. Металлургов", "пр. Курский", "ул. Брянская", "Центролит"],
	"checkPointUA": ["Школа №26", "вул. Харківська", "Покровська пл.", "вул. Кооперативна", "вул. Горького", "вул. Металургів", "пр. Курський", "вул. Брянська", "Центроліт"],
	"checkPointGB": ["№26 School", "Kharkivs'ka St", "Pokrovska Sqr", "Kooperativna St", "Hor'koho St", "Metalurhiv St", "Kurs'ka Ave", "Bryans'ka St", "Centrolit"],
	"pnts": ["50.957481, 34.776938","50.922665, 34.799007", "50.891891, 34.830408", "50.889804, 34.820849", "50.884378, 34.823979", "50.888244, 34.833293", "50.896172, 34.832834"]	
}
]